<?xml version="1.0" encoding="utf-8"?>
<!-- Generator: Adobe Illustrator 22.0.0, SVG Export Plug-In . SVG Version: 6.00 Build 0)  -->
<svg version="1.1" id="Слой_1" xmlns="http://www.w3.org/2000/svg" xmlns:xlink="http://www.w3.org/1999/xlink" x="0px" y="0px"
	 viewBox="0 0 35 25" style="enable-background:new 0 0 35 25;" xml:space="preserve" fill="white">
<path d="M22.3,12.5c3.5,0,6.4-2.8,6.4-6.3c0-3.4-2.9-6.2-6.4-6.2s-6.4,2.8-6.4,6.2C15.9,9.7,18.8,12.5,22.3,12.5z M8,9.4V4.7H4.8
	v4.7H0v3.1h4.8v4.7H8v-4.7h4.8V9.4H8z M22.3,15.6c-4.3,0-12.7,2-12.7,6.2V25H35v-3.1C35,17.7,26.6,15.6,22.3,15.6z"/>
</svg>
